Data Cleaning and EDA
…
2. bivarite plot

####so2 with state

plotdata <- df_c %>%
  group_by(state) %>%
  summarize(mean_1 = mean(so2))
plotdata

## # A tibble: 32 x 2
##    state                mean_1
##    <chr>                 <dbl>
##  1 Andhra Pradesh         6.88
##  2 Assam                  6.71
##  3 Bihar                  9.83
##  4 Chandigarh             3.50
##  5 Chhattisgarh          15.1 
##  6 Dadra & Nagar Haveli   9.55
##  7 Daman & Diu            9.27
##  8 Delhi                  8.04
##  9 Goa                    7.58
## 10 Gujarat               15.7 
## # ... with 22 more rows
…
no2 with state

plotdata <- df_c %>%
  group_by(state) %>%
  summarize(mean_1 = mean(no2))
plotdata

## # A tibble: 32 x 2
##    state                mean_1
##    <chr>                 <dbl>
##  1 Andhra Pradesh         26.0
##  2 Assam                  14.9
##  3 Bihar                  35.1
##  4 Chandigarh             20.5
##  5 Chhattisgarh           26.7
##  6 Dadra & Nagar Haveli   17.5
##  7 Daman & Diu            17.6
##  8 Delhi                  50.5
##  9 Goa                    13.0
## 10 Gujarat                24.3
## # ... with 22 more rows
…
rspm with state

plotdata <- df_c %>%
  group_by(state) %>%
  summarize(mean_1 = mean(rspm))
plotdata

## # A tibble: 32 x 2
##    state                mean_1
##    <chr>                 <dbl>
##  1 Andhra Pradesh         83.5
##  2 Assam                  92.9
##  3 Bihar                 104. 
##  4 Chandigarh            103. 
##  5 Chhattisgarh          131. 
##  6 Dadra & Nagar Haveli   86.4
##  7 Daman & Diu            84.7
##  8 Delhi                 186. 
##  9 Goa                    68.9
## 10 Gujarat               104. 
## # ... with 22 more rows
…
spm with state

plotdata <- df_c %>%
  group_by(state) %>%
  summarize(mean_1 = mean(spm))
plotdata

## # A tibble: 32 x 2
##    state                mean_1
##    <chr>                 <dbl>
##  1 Andhra Pradesh        205. 
##  2 Assam                 156. 
##  3 Bihar                 255. 
##  4 Chandigarh            202. 
##  5 Chhattisgarh          236. 
##  6 Dadra & Nagar Haveli  217. 
##  7 Daman & Diu           209. 
##  8 Delhi                 418. 
##  9 Goa                    44.5
## 10 Gujarat               178. 
## # ... with 22 more rows
…
